{
    "headers": {
      "messageType": "layers"
    },
    "body": {
      "layers": [
        {
          "id": "5f4af80a-04bf-4513-ba7a-84810906160c",
          "label": "Klinko",
          "color": {
            "r": 102,
            "g": 102,
            "b": 102,
            "a": 255
          },
          "legendIcon": "klinko",
          "type": "other"
        },
        {
          "id": "b9059a32-650f-42fe-bc1c-83828b651588",
          "label": "Lokacije Urbanomatov",
          "color": {
            "r": 102,
            "g": 102,
            "b": 102,
            "a": 255
          },
          "legendIcon": "urbanomat",
          "type": "other"
        },
        {
          "id": "bf22f26b-53be-453c-bb91-d567f45f3633",
          "label": "Prodajno mesto LPP",
          "color": {
            "r": 102,
            "g": 102,
            "b": 102,
            "a": 255
          },
          "legendIcon": "potniski_center_lpp",
          "type": "other"
        },
        {
          "id": "1449ab02-d6ca-4fbf-8c96-c2d0c6f1605a",
          "label": "Območja",
          "color": {
            "r": 102,
            "g": 102,
            "b": 102,
            "a": 255
          },
          "legendIcon": "obmocja",
          "type": "other"
        },
        {
          "id": "4c078ca5-4f27-4cae-ae82-f6eca1804e63",
          "label": "Radij 500m",
          "color": {
            "r": 102,
            "g": 102,
            "b": 102,
            "a": 255
          },
          "legendIcon": "radij_500m",
          "type": "other"
        },
        {
          "id": "81ba133e-a907-4f1c-9afc-7f367879b919",
          "label": "Radij 300m",
          "color": {
            "r": 102,
            "g": 102,
            "b": 102,
            "a": 255
          },
          "legendIcon": "radij_300m",
          "type": "other"
        },
        {
          "id": "ac0cc6fe-2066-4da2-a1cb-be54c745ab2b",
          "label": "Parkiraj in se pelji z avtobusom",
          "color": {
            "r": 102,
            "g": 102,
            "b": 102,
            "a": 255
          },
          "legendIcon": "p_plus_r",
          "type": "other"
        },
        {
          "id": "3538ffc4-2df0-4ff3-814e-7d611d919b32",
          "label": "STANEŽIČE P+R - DOLGI MOST P+R",
          "shortLabel": "1",
          "color": {
            "r": 178,
            "g": 58,
            "b": 52,
            "a": 255
          },
          "type": "proga"
        },
        {
          "id": "f9de5438-8a9b-4c99-bc38-55a3c9eee284",
          "label": "BESNICA - ZADOBROVA",
          "shortLabel": "10",
          "color": {
            "r": 102,
            "g": 102,
            "b": 102,
            "a": 255
          },
          "type": "proga"
        },
        {
          "id": "c7e5acf3-a439-4067-aac4-35efbe81b67f",
          "label": "ZALOG - JEŽICA P+R",
          "shortLabel": "11",
          "color": {
            "r": 226,
            "g": 187,
            "b": 70,
            "a": 255
          },
          "type": "proga"
        },
        {
          "id": "89c14d0a-d0c7-4283-977b-c0e4b4610a24",
          "label": "ZALOG - BEŽIGRAD",
          "shortLabel": "11B",
          "color": {
            "r": 226,
            "g": 187,
            "b": 70,
            "a": 255
          },
          "type": "proga"
        },
        {
          "id": "53b55311-8619-4b21-b36e-be81f0bf58b6",
          "label": "VEVČE - BEŽIGRAD",
          "shortLabel": "12",
          "color": {
            "r": 41,
            "g": 65,
            "b": 145,
            "a": 255
          },
          "type": "proga"
        },
        {
          "id": "691deef9-e2b4-45c9-a4c9-5cd7f99b4eb2",
          "label": "DRAGOMELJ - BEŽIGRAD",
          "shortLabel": "12D",
          "color": {
            "r": 41,
            "g": 65,
            "b": 145,
            "a": 255
          },
          "type": "proga"
        },
        {
          "id": "bb58287c-91cf-44b5-83cb-1a72ecb52b28",
          "label": "SOSTRO - CENTER STOŽICE P+R",
          "shortLabel": "13",
          "color": {
            "r": 201,
            "g": 204,
            "b": 84,
            "a": 255
          },
          "type": "proga"
        },
        {
          "id": "9b496584-41f4-402d-a378-5a0bfd6a89c0",
          "label": "BOKALCE - SAVLJE",
          "shortLabel": "14",
          "color": {
            "r": 218,
            "g": 88,
            "b": 148,
            "a": 255
          },
          "type": "proga"
        },
        {
          "id": "43bacc46-4f9f-4db0-902b-a4c4ef0c064e",
          "label": "SORA - STANEŽIČE",
          "shortLabel": "15",
          "color": {
            "r": 139,
            "g": 41,
            "b": 128,
            "a": 255
          },
          "type": "proga"
        },
        {
          "id": "dc2f7c60-0db8-4d39-9b15-966c43462f88",
          "label": "TRNOVO - ČRNI LOG",
          "shortLabel": "16",
          "color": {
            "r": 72,
            "g": 41,
            "b": 114,
            "a": 255
          },
          "type": "proga"
        },
        {
          "id": "5c7ed48b-81f0-485f-ba3d-c3849fc62077",
          "label": "CENTER STOŽICE P+R - ZOO - KOLODVOR",
          "shortLabel": "18",
          "color": {
            "r": 118,
            "g": 80,
            "b": 51,
            "a": 255
          },
          "type": "proga"
        },
        {
          "id": "f8a00af4-754d-4a2d-afe8-67ec025198f6",
          "label": "LITOSTROJSKA - ZOO - KOLODVOR",
          "shortLabel": "18L",
          "color": {
            "r": 118,
            "g": 80,
            "b": 51,
            "a": 255
          },
          "type": "proga"
        },
        {
          "id": "b317d505-72fa-40cd-824d-c3473c789d89",
          "label": "JEZERO - TOMAČEVO",
          "shortLabel": "19B",
          "color": {
            "r": 216,
            "g": 149,
            "b": 169,
            "a": 255
          },
          "type": "proga"
        },
        {
          "id": "1d38c319-1ae3-4b71-bb2f-bab43309a2c9",
          "label": "IŠKA VAS - TOMAČEVO",
          "shortLabel": "19I",
          "color": {
            "r": 216,
            "g": 149,
            "b": 169,
            "a": 255
          },
          "type": "proga"
        },
        {
          "id": "db60d677-5cfc-4050-b8df-ff9136f6c6d5",
          "label": "BROD - STANEŽIČE P+R - DOLGI MOST P+R",
          "shortLabel": "1B",
          "color": {
            "r": 178,
            "g": 58,
            "b": 52,
            "a": 255
          },
          "type": "proga"
        },
        {
          "id": "994dfa9b-a109-41de-857c-ed0de7dc7b98",
          "label": "NOVE JARŠE - ZELENA JAMA",
          "shortLabel": "2",
          "color": {
            "r": 127,
            "g": 123,
            "b": 63,
            "a": 255
          },
          "type": "proga"
        },
        {
          "id": "89de1589-8b99-485c-b8db-247ec9388ab5",
          "label": "NOVE STOŽICE P+R - FUŽINE P+R",
          "shortLabel": "20",
          "color": {
            "r": 58,
            "g": 121,
            "b": 75,
            "a": 255
          },
          "type": "proga"
        },
        {
          "id": "b4fbb7f9-cb6c-4646-8b6c-edea354fa788",
          "label": "NOVE STOŽICE P+R - ZALOG",
          "shortLabel": "20Z",
          "color": {
            "r": 58,
            "g": 115,
            "b": 75,
            "a": 255
          },
          "type": "proga"
        },
        {
          "id": "f77bee5e-bb57-4ff7-aaf0-defe2002cd69",
          "label": "BERIČEVO - JEŽICA",
          "shortLabel": "21",
          "color": {
            "r": 98,
            "g": 173,
            "b": 77,
            "a": 255
          },
          "type": "proga"
        },
        {
          "id": "af97899f-8943-4bfa-9ea7-f4692d6252aa",
          "label": "GAMELJNE - TRATA",
          "shortLabel": "21Z",
          "color": {
            "r": 102,
            "g": 102,
            "b": 102,
            "a": 255
          },
          "type": "proga"
        },
        {
          "id": "4cb4b645-af94-4cba-b15a-81be634cf412",
          "label": "KAMNA GORICA - FUŽINE P+R",
          "shortLabel": "22",
          "color": {
            "r": 230,
            "g": 160,
            "b": 66,
            "a": 255
          },
          "type": "proga"
        },
        {
          "id": "b73f9304-87b2-462e-9950-a1ee2c8f57ee",
          "label": "PODUTIK - KAMNA GORICA",
          "shortLabel": "23",
          "color": {
            "r": 94,
            "g": 166,
            "b": 83,
            "a": 255
          },
          "type": "proga"
        },
        {
          "id": "65b176ea-b2fa-4701-b19f-6b12998c5f0a",
          "label": "BTC ATLANTIS - VEVČE",
          "shortLabel": "24",
          "color": {
            "r": 212,
            "g": 38,
            "b": 126,
            "a": 255
          },
          "type": "proga"
        },
        {
          "id": "ea79e769-ac62-4f7b-b536-23ddbcf8aea6",
          "label": "ZADOBROVA - MEDVODE",
          "shortLabel": "25",
          "color": {
            "r": 35,
            "g": 135,
            "b": 188,
            "a": 255
          },
          "type": "proga"
        },
        {
          "id": "6bfe7354-c7bb-488f-8bb8-aa1aa0b8b5a4",
          "label": "TUJI GRM - MALI LIPOGLAV",
          "shortLabel": "26",
          "color": {
            "r": 31,
            "g": 29,
            "b": 29,
            "a": 255
          },
          "type": "proga"
        },
        {
          "id": "39866a67-e3a1-4500-99da-37c0121a097c",
          "label": "NS RUDNIK - BTC - LETALIŠKA",
          "shortLabel": "27",
          "color": {
            "r": 88,
            "g": 151,
            "b": 134,
            "a": 255
          },
          "type": "proga"
        },
        {
          "id": "70b8e0ea-afbb-4005-9224-e93f81547278",
          "label": "LITOSTROJ - RUDNIK",
          "shortLabel": "3",
          "color": {
            "r": 214,
            "g": 87,
            "b": 58,
            "a": 255
          },
          "type": "proga"
        },
        {
          "id": "8fb4916c-e496-433c-8325-c0f6cdfcef7e",
          "label": "Vodice - Medvode",
          "shortLabel": "30",
          "color": {
            "r": 155,
            "g": 202,
            "b": 166,
            "a": 255
          },
          "type": "proga"
        },
        {
          "id": "e3d05406-0b5e-48ea-a718-2175fb283367",
          "label": "Električni vlakec Urban",
          "shortLabel": "321",
          "color": {
            "r": 102,
            "g": 102,
            "b": 102,
            "a": 255
          },
          "type": "proga"
        },
        {
          "id": "cd53aa9f-9f15-41bf-9c3e-bef2daa29aaf",
          "label": "ŠKOFLJICA - LITOSTROJ",
          "shortLabel": "3B",
          "color": {
            "r": 214,
            "g": 87,
            "b": 58,
            "a": 255
          },
          "type": "proga"
        },
        {
          "id": "071a55d2-4d1e-4745-b475-2811884bf7ff",
          "label": "GROSUPLJE - BEŽIGRAD",
          "shortLabel": "3G",
          "color": {
            "r": 227,
            "g": 124,
            "b": 70,
            "a": 255
          },
          "type": "proga"
        },
        {
          "id": "42a4a5d8-5e03-4cef-b8f7-6c0e0d1ed928",
          "label": "IG AP - Strahomer",
          "shortLabel": "40",
          "color": {
            "r": 71,
            "g": 98,
            "b": 98,
            "a": 255
          },
          "type": "proga"
        },
        {
          "id": "7e3b6df5-22d7-4061-9015-7f77571ae4fb",
          "label": "Zapotok/Kureščku - Ig AP",
          "shortLabel": "42",
          "color": {
            "r": 152,
            "g": 128,
            "b": 98,
            "a": 255
          },
          "type": "proga"
        },
        {
          "id": "4318c250-3d16-42f7-9f0a-fae7d11ba84a",
          "label": "Notranje Gorice - Preserje",
          "shortLabel": "43",
          "color": {
            "r": 68,
            "g": 64,
            "b": 107,
            "a": 255
          },
          "type": "proga"
        },
        {
          "id": "061c549d-9d15-4ac9-b13d-79b3be641716",
          "label": "Notranje Gorice - Rakitna",
          "shortLabel": "44",
          "color": {
            "r": 117,
            "g": 114,
            "b": 156,
            "a": 255
          },
          "type": "proga"
        },
        {
          "id": "be60dcbe-58f7-4d94-b349-11c6fe02df4c",
          "label": "Borovnica Merc. - Ljubljana",
          "shortLabel": "45",
          "color": {
            "r": 102,
            "g": 102,
            "b": 102,
            "a": 255
          },
          "type": "proga"
        },
        {
          "id": "43d1b5a8-c6cb-4ab1-a261-cbe4372918ea",
          "label": "Ljubljana - Vrhnika - Smrečje - Žiri",
          "shortLabel": "46 ",
          "color": {
            "r": 102,
            "g": 102,
            "b": 102,
            "a": 255
          },
          "type": "proga"
        },
        {
          "id": "01677c4a-4cfe-4bac-a3b7-304ebe459556",
          "label": "Vrhnika Voljčeva - Ljubljana AP",
          "shortLabel": "47",
          "color": {
            "r": 102,
            "g": 102,
            "b": 102,
            "a": 255
          },
          "type": "proga"
        },
        {
          "id": "aee7d63c-eaae-49fe-8c8a-5e1816033246",
          "label": "Ljubljana-Logatec-Grčarevec",
          "shortLabel": "48",
          "color": {
            "r": 102,
            "g": 102,
            "b": 102,
            "a": 255
          },
          "type": "proga"
        },
        {
          "id": "871b56ec-910d-4e95-9edb-bda9533c6a55",
          "label": "Vrhnika Jazon-Borovnica K-Ljubljana",
          "shortLabel": "49",
          "color": {
            "r": 102,
            "g": 102,
            "b": 102,
            "a": 255
          },
          "type": "proga"
        },
        {
          "id": "e2ebe42c-ab1c-4466-a00f-f183a6edb763",
          "label": "ŠTEPANJSKO NASELJE - PODUTIK",
          "shortLabel": "5",
          "color": {
            "r": 139,
            "g": 77,
            "b": 143,
            "a": 255
          },
          "type": "proga"
        },
        {
          "id": "582fcf16-46f4-4fdc-a2d0-9cff4d7c730c",
          "label": "Horjul - Vrhnika Jazon",
          "shortLabel": "50",
          "color": {
            "r": 102,
            "g": 102,
            "b": 102,
            "a": 255
          },
          "type": "proga"
        },
        {
          "id": "ea962ef1-e97a-4784-8f98-1ddf51b27637",
          "label": "Polhov Gradec - Ljubljana AP",
          "shortLabel": "51",
          "color": {
            "r": 102,
            "g": 127,
            "b": 187,
            "a": 255
          },
          "type": "proga"
        },
        {
          "id": "d9d3ae03-933c-4040-8f33-7d8d5a8bdee7",
          "label": "Črni Vrh-Polhov Gradec",
          "shortLabel": "52",
          "color": {
            "r": 30,
            "g": 76,
            "b": 81,
            "a": 255
          },
          "type": "proga"
        },
        {
          "id": "aec7eea6-54dc-46d8-a107-d30abee085a8",
          "label": "Polhov Gradec-Suhi dol/Planino",
          "shortLabel": "53",
          "color": {
            "r": 150,
            "g": 124,
            "b": 158,
            "a": 255
          },
          "type": "proga"
        },
        {
          "id": "cf37721b-e185-4c40-b2ab-aa6a60f7e7c1",
          "label": "Sinja Gorica-Blatna Brezovica-Ljubljana",
          "shortLabel": "54",
          "color": {
            "r": 102,
            "g": 102,
            "b": 102,
            "a": 255
          },
          "type": "proga"
        },
        {
          "id": "8002790b-3490-4680-a278-4dd72a4343d6",
          "label": "Šentjošt - Ljubljana AP",
          "shortLabel": "56",
          "color": {
            "r": 127,
            "g": 50,
            "b": 26,
            "a": 255
          },
          "type": "proga"
        },
        {
          "id": "bd0ff32a-1f0b-40da-abea-a6bcc2e2ad26",
          "label": "DOLGI MOST P+R - ČRNUČE",
          "shortLabel": "6",
          "color": {
            "r": 136,
            "g": 137,
            "b": 140,
            "a": 255
          },
          "type": "proga"
        },
        {
          "id": "cebe5a53-7bf2-4724-a79f-187ec5b03863",
          "label": "Ljubljana-Vodice",
          "shortLabel": "60",
          "color": {
            "r": 165,
            "g": 179,
            "b": 109,
            "a": 255
          },
          "type": "proga"
        },
        {
          "id": "3e767e00-f336-49bf-80de-fd592c2b5772",
          "label": "Vodice - Š. Turn - Polje - Zapoge - Vodice ",
          "shortLabel": "61",
          "color": {
            "r": 236,
            "g": 160,
            "b": 78,
            "a": 255
          },
          "type": "proga"
        },
        {
          "id": "66ffcb6e-eed1-49b1-a4e6-62a8be00cec4",
          "label": "Letališče Brnik - Ljubljana",
          "shortLabel": "64",
          "color": {
            "r": 102,
            "g": 102,
            "b": 102,
            "a": 255
          },
          "type": "proga"
        },
        {
          "id": "840e5b2c-9a72-4570-a65d-7c417c009af3",
          "label": "Ljubljana-Škofljica-Grosuplje-Šentvid pri Stični",
          "shortLabel": "68",
          "color": {
            "r": 102,
            "g": 102,
            "b": 102,
            "a": 255
          },
          "type": "proga"
        },
        {
          "id": "7918af6e-373c-44c6-b80d-3ff429daf1c8",
          "label": "Temenica - Šentvid pri Stični - Ljubljana",
          "shortLabel": "69",
          "color": {
            "r": 102,
            "g": 102,
            "b": 102,
            "a": 255
          },
          "type": "proga"
        },
        {
          "id": "ebb6ce8d-0cf4-4cde-b0ce-b98080c5ec00",
          "label": "NOTRANJE GORICE - BEŽIGRAD",
          "shortLabel": "6B",
          "color": {
            "r": 165,
            "g": 167,
            "b": 167,
            "a": 255
          },
          "type": "proga"
        },
        {
          "id": "6b4bd93c-f5e2-43e5-be99-3a96b43394e4",
          "label": "PRŽAN - NOVE JARŠE",
          "shortLabel": "7",
          "color": {
            "r": 71,
            "g": 172,
            "b": 209,
            "a": 255
          },
          "type": "proga"
        },
        {
          "id": "dc299961-a509-44a8-b897-f9808adf8185",
          "label": "Grosuplje - Luče na šoli - Grosuplje",
          "shortLabel": "71",
          "color": {
            "r": 102,
            "g": 127,
            "b": 187,
            "a": 255
          },
          "type": "proga"
        },
        {
          "id": "eb4104e4-b2b1-49c7-8ee4-2c636966ac74",
          "label": "Polica - Troščine - Grosuplje",
          "shortLabel": "72",
          "color": {
            "r": 88,
            "g": 151,
            "b": 134,
            "a": 255
          },
          "type": "proga"
        },
        {
          "id": "4cd32c7b-6cff-4514-af9e-ca161a5e0924",
          "label": "Škocjan - Spodnja Slivnica - Grosuplje",
          "shortLabel": "73",
          "color": {
            "r": 247,
            "g": 197,
            "b": 54,
            "a": 255
          },
          "type": "proga"
        },
        {
          "id": "627b5ebb-7513-4236-bfea-711f15747592",
          "label": "Valična vas-Breg pri Zagradcu-Ivančna Gorica",
          "shortLabel": "74",
          "color": {
            "r": 102,
            "g": 102,
            "b": 102,
            "a": 255
          },
          "type": "proga"
        },
        {
          "id": "68368dc7-15f5-4a41-b591-a9221858cbcf",
          "label": "Ambrus-Ivančna Gorica-Grosuplje-Ljubljana AP",
          "shortLabel": "76",
          "color": {
            "r": 102,
            "g": 102,
            "b": 102,
            "a": 255
          },
          "type": "proga"
        },
        {
          "id": "2b2d5417-650c-4fdc-b3dd-a27ed574be44",
          "label": "Videm-Grosuplje-AC-Ljubljana",
          "shortLabel": "78",
          "color": {
            "r": 102,
            "g": 102,
            "b": 102,
            "a": 255
          },
          "type": "proga"
        },
        {
          "id": "f4fc42f3-c1d0-47af-acf4-5e1eb956ec2b",
          "label": "Videm/Dobrepolju - Turjak - Ljubljana",
          "shortLabel": "79",
          "color": {
            "r": 102,
            "g": 102,
            "b": 102,
            "a": 255
          },
          "type": "proga"
        },
        {
          "id": "c7a3d2f8-c366-4f66-850f-16980893ea18",
          "label": "PRŽAN - LETALIŠKA",
          "shortLabel": "7L",
          "color": {
            "r": 71,
            "g": 172,
            "b": 209,
            "a": 255
          },
          "type": "proga"
        },
        {
          "id": "2fadc172-f32d-4839-918d-359d9e6d93db",
          "label": "BRNČIČEVA - BROD (obvoz)",
          "shortLabel": "8",
          "color": {
            "r": 37,
            "g": 93,
            "b": 159,
            "a": 255
          },
          "type": "proga"
        },
        {
          "id": "811ccef2-2dcf-43d3-9e8f-09171fe96a9a",
          "label": "Ivančna Gorica - Hočevje - Brezje/Dobrepolju",
          "shortLabel": "80",
          "color": {
            "r": 102,
            "g": 102,
            "b": 102,
            "a": 255
          },
          "type": "proga"
        },
        {
          "id": "9daaf328-42c4-4a52-af80-b3f95e445ba5",
          "label": "Ljubljana-Škofljica-Želimlje",
          "shortLabel": "82",
          "color": {
            "r": 102,
            "g": 102,
            "b": 102,
            "a": 255
          },
          "type": "proga"
        },
        {
          "id": "bbcfcfb0-67af-4e77-90ef-e7bf7d146464",
          "label": "Škofljica OŠ-Pijava Gorica-Smrjene-Gradišče-Vrh nad Želimljami",
          "shortLabel": "83",
          "color": {
            "r": 102,
            "g": 102,
            "b": 102,
            "a": 255
          },
          "type": "proga"
        },
        {
          "id": "90dce965-4fca-4338-ad63-5698e6994e81",
          "label": "Škofljica OŠ-Drenik-Gorenje Blato-Gumnišče-Škofljica OŠ",
          "shortLabel": "84",
          "color": {
            "r": 102,
            "g": 102,
            "b": 102,
            "a": 255
          },
          "type": "proga"
        },
        {
          "id": "bdf328c5-8dbc-44a7-8cd4-9c5869830052",
          "label": "Škofljica OŠ-Gorenje Blato-Drenik-Želimlje-Smrjene-Gradišče-Vrh nad Želimljami",
          "shortLabel": "85",
          "color": {
            "r": 102,
            "g": 102,
            "b": 102,
            "a": 255
          },
          "type": "proga"
        },
        {
          "id": "1927fa88-df2c-421f-9636-a1a9179a8105",
          "label": "Škofljica - Lavrica - Orle ",
          "shortLabel": "86",
          "color": {
            "r": 102,
            "g": 102,
            "b": 102,
            "a": 255
          },
          "type": "proga"
        },
        {
          "id": "f24db72e-8807-4377-a49e-8d40a480fee9",
          "label": "BARJE P+R - ŠTEPANJSKO NASELJE",
          "shortLabel": "9",
          "color": {
            "r": 130,
            "g": 159,
            "b": 195,
            "a": 255
          },
          "type": "proga"
        },
        {
          "id": "47e24c32-dda9-4d62-9dd3-2f30514be491",
          "label": "Dolgi most P+R - Bav. dvor - STANEŽIČE P+R - BROD- GAMELJNE",
          "shortLabel": "N1",
          "color": {
            "r": 204,
            "g": 69,
            "b": 68,
            "a": 255
          },
          "type": "proga"
        },
        {
          "id": "8064c2f5-183a-4f5c-a076-f549bc05b369",
          "label": "Bav. dvor - RUDNIK",
          "shortLabel": "N3",
          "color": {
            "r": 235,
            "g": 97,
            "b": 71,
            "a": 255
          },
          "type": "proga"
        },
        {
          "id": "a3566264-583b-48b2-b594-dc1480fdd89d",
          "label": "Bavarski dvor - ŠKOFLJICA",
          "shortLabel": "N3B",
          "color": {
            "r": 235,
            "g": 97,
            "b": 71,
            "a": 255
          },
          "type": "proga"
        },
        {
          "id": "a85079f3-985d-4b00-9e50-9e1cb832acc8",
          "label": "ŠTEPANJSKO NASELJE - PODUTIK",
          "shortLabel": "N5",
          "color": {
            "r": 163,
            "g": 92,
            "b": 160,
            "a": 255
          },
          "type": "proga"
        },
        {
          "id": "0a9119ae-1f18-469d-8447-b8e2f28db1e6",
          "label": "SŽ KOLODVOR - SŽ ŠIŠKA",
          "shortLabel": "SŽ",
          "color": {
            "r": 102,
            "g": 102,
            "b": 102,
            "a": 255
          },
          "type": "proga"
        }
      ]
    }
  }